{
  "UT Yadav": [
    387,
    266
  ],
  "M Morkel": [
    212,
    174
  ],
  "Shakib Al Hasan": [
    123,
    89
  ],
  "SP Narine": [
    246,
    196
  ],
  "AD Russell": [
    332,
    254
  ],
  "PP Chawla": [
    275,
    212
  ],
  "SL Malinga": [
    453,
    378
  ],
  "R Vinay Kumar": [
    371,
    265
  ],
  "CJ Anderson": [
    33,
    24
  ],
  "JJ Bumrah": [
    184,
    98
  ],
  "PP Ojha": [
    23,
    12
  ],
  "Harbhajan Singh": [
    448,
    349
  ],
  "JA Morkel": [
    113,
    74
  ],
  "NM Coulter-Nile": [
    331,
    264
  ],
  "DJ Muthuswami": [
    108,
    84
  ],
  "Imran Tahir": [
    315,
    220
  ],
  "A Mishra": [
    312,
    249
  ],
  "JP Duminy": [
    128,
    107
  ],
  "A Nehra": [
    453,
    385
  ],
  "MM Sharma": [
    482,
    350
  ],
  "IC Pandey": [
    228,
    189
  ],
  "R Ashwin": [
    229,
    240
  ],
  "DJ Bravo": [
    442,
    324
  ],
  "Sandeep Sharma": [
    359,
    311
  ],
  "Anureet Singh": [
    477,
    322
  ],
  "AR Patel": [
    399,
    289
  ],
  "Karanveer Singh": [
    159,
    87
  ],
  "MG Johnson": [
    346,
    231
  ],
  "TG Southee": [
    255,
    175
  ],
  "CH Morris": [
    336,
    270
  ],
  "DS Kulkarni": [
    290,
    221
  ],
  "JP Faulkner": [
    433,
    281
  ],
  "PV Tambe": [
    267,
    204
  ],
  "STR Binny": [
    143,
    119
  ],
  "B Kumar": [
    419,
    323
  ],
  "TA Boult": [
    239,
    181
  ],
  "I Sharma": [
    161,
    89
  ],
  "KV Sharma": [
    338,
    239
  ],
  "RS Bopara": [
    164,
    123
  ],
  "Parvez Rasool": [
    31,
    30
  ],
  "RA Jadeja": [
    334,
    258
  ],
  "SA Abbott": [
    57,
    32
  ],
  "HV Patel": [
    339,
    272
  ],
  "VR Aaron": [
    180,
    113
  ],
  "AN Ahmed": [
    129,
    76
  ],
  "DJG Sammy": [
    26,
    18
  ],
  "YS Chahal": [
    416,
    283
  ],
  "KC Cariappa": [
    28,
    12
  ],
  "YK Pathan": [
    100,
    60
  ],
  "DJ Hooda": [
    131,
    97
  ],
  "JD Unadkat": [
    30,
    18
  ],
  "AD Mathews": [
    249,
    185
  ],
  "Yuvraj Singh": [
    75,
    55
  ],
  "P Suyal": [
    97,
    67
  ],
  "J Suchith": [
    338,
    239
  ],
  "KA Pollard": [
    121,
    81
  ],
  "R Dhawan": [
    111,
    79
  ],
  "P Kumar": [
    338,
    230
  ],
  "A Ashish Reddy": [
    51,
    37
  ],
  "S Gopal": [
    23,
    13
  ],
  "PJ Cummins": [
    103,
    66
  ],
  "GB Hogg": [
    148,
    127
  ],
  "P Negi": [
    259,
    183
  ],
  "RG More": [
    63,
    37
  ],
  "GJ Maxwell": [
    97,
    63
  ],
  "DW Steyn": [
    171,
    116
  ],
  "NLTC Perera": [
    55,
    37
  ],
  "Ankit Sharma": [
    114,
    86
  ],
  "SR Watson": [
    273,
    193
  ],
  "Iqbal Abdulla": [
    150,
    121
  ],
  "D Wiese": [
    360,
    262
  ],
  "MJ McClenaghan": [
    395,
    305
  ],
  "HH Pandya": [
    178,
    107
  ],
  "Shivam Sharma": [
    44,
    18
  ],
  "R Tewatia": [
    31,
    18
  ],
  "J Botha": [
    82,
    62
  ],
  "MC Henriques": [
    164,
    157
  ],
  "Bipul Sharma": [
    50,
    42
  ],
  "MA Starc": [
    306,
    272
  ],
  "S Nadeem": [
    43,
    44
  ],
  "V Kohli": [
    10,
    11
  ],
  "M Vijay": [
    28,
    24
  ],
  "Z Khan": [
    159,
    155
  ],
  "SK Raina": [
    94,
    78
  ],
  "SN Thakur": [
    39,
    20
  ],
  "J Theron": [
    41,
    26
  ],
  "GS Sandhu": [
    86,
    48
  ],
  "R Bhatia": [
    47,
    30
  ],
  "RN ten Doeschate": [
    4,
    7
  ],
  "S Aravind": [
    132,
    110
  ],
  "M de Lange": [
    30,
    26
  ],
  "BE Hendricks": [
    112,
    82
  ],
  "Gurkeerat Singh": [
    66,
    56
  ],
  "J Yadav": [
    29,
    42
  ],
  "AB Dinda": [
    63,
    33
  ],
  "Azhar Mahmood": [
    41,
    20
  ],
  "BB Sran": [
    36,
    20
  ],
  "CH Gayle": [
    16,
    13
  ],
  "DR Smith": [
    17,
    12
  ]
}